^D:\LABSOOP\LAB 1\1.12С++\1.12С++\DEBUG\1.12С++.OBJ|D:\LABSOOP\LAB 1\1.12С++\1.12С++\DEBUG\PCH.OBJ
D:\LABSOOP\LAB 1\1.12с++\DEBUG\1.12с++.EXE
D:\LABSOOP\LAB 1\1.12с++\DEBUG\1.12с++.ILK
D:\LABSOOP\LAB 1\1.12С++\DEBUG\1.12С++.PDB
