^C:\USERS\DRWIL\SOURCE\REPOS\1.3C++\1.3C++\DEBUG\1.3C++.OBJ|C:\USERS\DRWIL\SOURCE\REPOS\1.3C++\1.3C++\DEBUG\PCH.OBJ
C:\USERS\DRWIL\SOURCE\REPOS\1.3C++\DEBUG\1.3C++.ILK
C:\USERS\DRWIL\SOURCE\REPOS\1.3C++\DEBUG\1.3C++.EXE
C:\USERS\DRWIL\SOURCE\REPOS\1.3C++\DEBUG\1.3C++.PDB
