^C:\USERS\DRWIL\SOURCE\REPOS\1.11C++\1.11C++\DEBUG\1.11C++.OBJ|C:\USERS\DRWIL\SOURCE\REPOS\1.11C++\1.11C++\DEBUG\PCH.OBJ
C:\USERS\DRWIL\SOURCE\REPOS\1.11C++\DEBUG\1.11C++.EXE
C:\USERS\DRWIL\SOURCE\REPOS\1.11C++\DEBUG\1.11C++.ILK
C:\USERS\DRWIL\SOURCE\REPOS\1.11C++\DEBUG\1.11C++.PDB
