^C:\USERS\DRWIL\SOURCE\REPOS\1.1C++\1.1C++\PCH.CPP
C:\USERS\DRWIL\SOURCE\REPOS\1.1C++\1.1C++\DEBUG\1.1C++.PCH
C:\USERS\DRWIL\SOURCE\REPOS\1.1C++\1.1C++\DEBUG\VC141.PDB
C:\USERS\DRWIL\SOURCE\REPOS\1.1C++\1.1C++\DEBUG\VC141.IDB
C:\USERS\DRWIL\SOURCE\REPOS\1.1C++\1.1C++\DEBUG\PCH.OBJ
^C:\USERS\DRWIL\SOURCE\REPOS\1.1C++\1.1C++\1.1C++.CPP
C:\USERS\DRWIL\SOURCE\REPOS\1.1C++\1.1C++\DEBUG\VC141.PDB
C:\USERS\DRWIL\SOURCE\REPOS\1.1C++\1.1C++\DEBUG\VC141.IDB
C:\USERS\DRWIL\SOURCE\REPOS\1.1C++\1.1C++\DEBUG\1.1C++.OBJ
