^C:\USERS\DRWIL\SOURCE\REPOS\1.8C++\1.8C++\PCH.CPP
C:\USERS\DRWIL\SOURCE\REPOS\1.8C++\1.8C++\DEBUG\1.8C++.PCH
C:\USERS\DRWIL\SOURCE\REPOS\1.8C++\1.8C++\DEBUG\VC141.PDB
C:\USERS\DRWIL\SOURCE\REPOS\1.8C++\1.8C++\DEBUG\VC141.IDB
C:\USERS\DRWIL\SOURCE\REPOS\1.8C++\1.8C++\DEBUG\PCH.OBJ
^C:\USERS\DRWIL\SOURCE\REPOS\1.8C++\1.8C++\1.8C++.CPP
C:\USERS\DRWIL\SOURCE\REPOS\1.8C++\1.8C++\DEBUG\VC141.PDB
C:\USERS\DRWIL\SOURCE\REPOS\1.8C++\1.8C++\DEBUG\VC141.IDB
C:\USERS\DRWIL\SOURCE\REPOS\1.8C++\1.8C++\DEBUG\1.8C++.OBJ
