^C:\USERS\DRWIL\SOURCE\REPOS\1.4C++\1.4C++\PCH.CPP
C:\USERS\DRWIL\SOURCE\REPOS\1.4C++\1.4C++\DEBUG\1.4C++.PCH
C:\USERS\DRWIL\SOURCE\REPOS\1.4C++\1.4C++\DEBUG\VC141.PDB
C:\USERS\DRWIL\SOURCE\REPOS\1.4C++\1.4C++\DEBUG\VC141.IDB
C:\USERS\DRWIL\SOURCE\REPOS\1.4C++\1.4C++\DEBUG\PCH.OBJ
^C:\USERS\DRWIL\SOURCE\REPOS\1.4C++\1.4C++\1.4C++.CPP
C:\USERS\DRWIL\SOURCE\REPOS\1.4C++\1.4C++\DEBUG\VC141.PDB
C:\USERS\DRWIL\SOURCE\REPOS\1.4C++\1.4C++\DEBUG\VC141.IDB
C:\USERS\DRWIL\SOURCE\REPOS\1.4C++\1.4C++\DEBUG\1.4C++.OBJ
