^C:\USERS\DRWIL\SOURCE\REPOS\1.6C++\1.6C++\PCH.CPP
C:\USERS\DRWIL\SOURCE\REPOS\1.6C++\1.6C++\DEBUG\1.6C++.PCH
C:\USERS\DRWIL\SOURCE\REPOS\1.6C++\1.6C++\DEBUG\VC141.PDB
C:\USERS\DRWIL\SOURCE\REPOS\1.6C++\1.6C++\DEBUG\VC141.IDB
C:\USERS\DRWIL\SOURCE\REPOS\1.6C++\1.6C++\DEBUG\PCH.OBJ
^C:\USERS\DRWIL\SOURCE\REPOS\1.6C++\1.6C++\1.6C++.CPP
C:\USERS\DRWIL\SOURCE\REPOS\1.6C++\1.6C++\DEBUG\VC141.PDB
C:\USERS\DRWIL\SOURCE\REPOS\1.6C++\1.6C++\DEBUG\VC141.IDB
C:\USERS\DRWIL\SOURCE\REPOS\1.6C++\1.6C++\DEBUG\1.6C++.OBJ
