^C:\USERS\DRWIL\SOURCE\REPOS\1.9C++\1.9C++\DEBUG\1.9C++.OBJ|C:\USERS\DRWIL\SOURCE\REPOS\1.9C++\1.9C++\DEBUG\PCH.OBJ
C:\USERS\DRWIL\SOURCE\REPOS\1.9C++\DEBUG\1.9C++.EXE
C:\USERS\DRWIL\SOURCE\REPOS\1.9C++\DEBUG\1.9C++.ILK
C:\USERS\DRWIL\SOURCE\REPOS\1.9C++\DEBUG\1.9C++.PDB
